…
``` r
proftrash_df =
  read_excel("202207 Trash Wheel Collection Data.xlsx", 
             sheet="Professor Trash Wheel", 
             range="A2:L96") |>
  janitor::clean_names() |>
  mutate(kilowatts = weight_tons * 500,
         homes_powered = kilowatts / 30,
         name = "Professor Trash Wheel",
         year = as.character(year)) 

proftrash_df
```

    ## # A tibble: 94 × 15
    ##    dumpster month    year  date                weight_tons volume_cubic_yards
    ##       <dbl> <chr>    <chr> <dttm>                    <dbl>              <dbl>
    ##  1        1 January  2017  2017-01-02 00:00:00        1.79                 15
    ##  2        2 January  2017  2017-01-30 00:00:00        1.58                 15
    ##  3        3 February 2017  2017-02-26 00:00:00        2.32                 18
    ##  4        4 February 2017  2017-02-26 00:00:00        3.72                 15
    ##  5        5 February 2017  2017-02-28 00:00:00        1.45                 15
    ##  6        6 March    2017  2017-03-30 00:00:00        1.71                 15
    ##  7        7 April    2017  2017-04-01 00:00:00        1.82                 15
    ##  8        8 April    2017  2017-04-20 00:00:00        2.37                 15
    ##  9        9 May      2017  2017-05-10 00:00:00        2.64                 15
    ## 10       10 May      2017  2017-05-26 00:00:00        2.78                 15
    ## # ℹ 84 more rows
    ## # ℹ 9 more variables: plastic_bottles <dbl>, polystyrene <dbl>,
    ## #   cigarette_butts <dbl>, glass_bottles <dbl>, grocery_bags <dbl>,
    ## #   chip_bags <dbl>, kilowatts <dbl>, homes_powered <dbl>, name <chr>
``` r
gwynnda_df = 
  read_excel("202207 Trash Wheel Collection Data.xlsx", 
             sheet="Gwynnda Trash Wheel", 
             range="A2:J108") |>
  janitor::clean_names() |>
  mutate(kilowatts = weight_tons * 500,
         homes_powered = kilowatts / 30,
         name = "Gwynnda Trash Wheel",
         year = as.character(year))

gwynnda_df
```

    ## # A tibble: 106 × 13
    ##    dumpster month  year  date                weight_tons volume_cubic_yards
    ##       <dbl> <chr>  <chr> <dttm>                    <dbl>              <dbl>
    ##  1        1 July   2021  2021-07-03 00:00:00        0.93                 15
    ##  2        2 July   2021  2021-07-07 00:00:00        2.26                 15
    ##  3        3 July   2021  2021-07-07 00:00:00        1.62                 15
    ##  4        4 July   2021  2021-07-16 00:00:00        1.76                 15
    ##  5        5 July   2021  2021-07-30 00:00:00        1.53                 15
    ##  6        6 August 2021  2021-08-11 00:00:00        2.06                 15
    ##  7        7 August 2021  2021-08-14 00:00:00        1.9                  15
    ##  8        8 August 2021  2021-08-16 00:00:00        2.16                 15
    ##  9        9 August 2021  2021-08-16 00:00:00        2.6                  15
    ## 10       10 August 2021  2021-08-17 00:00:00        3.21                 15
    ## # ℹ 96 more rows
    ## # ℹ 7 more variables: plastic_bottles <dbl>, polystyrene <dbl>,
    ## #   cigarette_butts <dbl>, plastic_bags <dbl>, kilowatts <dbl>,
    ## #   homes_powered <dbl>, name <chr>
…
